[2.02887908e-12 1.01456711e+00 0.00000000e+00 1.24335900e-01
 0.00000000e+00]
[0.06325549 0.         0.89199467 0.01215381 0.02349791]
[0.00000000e+00 1.37975292e-01 4.10692474e-01 5.60920401e-02
 1.95981686e-09]
[0.12652496 0.71835959 0.         0.07660917 0.06714927]
[0.         0.         0.29230009 0.03271804 0.        ]
[0.03492096 0.43343243 0.         0.0115683  0.12321711]
[0.00000000e+00 0.00000000e+00 1.04970465e+00 4.61154613e-03
 1.00956557e-06]
[0.         0.38130272 0.49643314 0.00881581 0.00213509]
[2.22044605e-16 1.52411231e+00 0.00000000e+00 0.00000000e+00
 2.22044605e-16]
[2.22044605e-16 3.82099452e-01 5.48926770e-01 5.80174743e-03
 1.02196604e-14]
[2.67569992e-02 8.24776373e-01 0.00000000e+00 5.49248950e-04
 0.00000000e+00]
[0.0481087  0.02052094 0.60652538 0.05773146 0.05434538]
[2.36299162e-02 2.21227897e-01 4.29607162e-07 7.55093306e-16
 1.97880091e+00]
[1.83033816e-03 0.00000000e+00 0.00000000e+00 2.11775257e-04
 1.65045553e+00]
[2.22044605e-16 0.00000000e+00 0.00000000e+00 0.00000000e+00
 1.97205714e+00]
[0.         1.41242032 0.         0.         0.        ]
[0.00000000e+00 2.57422400e-08 3.29793512e-02 4.32718442e-02
 1.56693865e+00]
[0.00000000e+00 1.22527791e+00 3.51171852e-03 0.00000000e+00
 2.22044605e-16]
[0.03884557 0.00269394 0.32426288 0.         0.14697452]
[3.66262821e-03 1.01926611e+00 0.00000000e+00 3.47641413e-10
 6.08812687e-02]
[2.13481378e-03 3.12910455e-06 1.30218874e+00 5.74094600e-15
 5.64219767e-02]
[0.38342315 0.03683519 0.         0.1207204  0.30607153]
[0.02486165 0.46412403 0.         0.18354659 0.0795481 ]
[0.07286474 0.         0.80140028 0.         0.08013112]
[1.16479456e-01 2.22044605e-16 5.89175990e-01 0.00000000e+00
 0.00000000e+00]
[4.81852786e-04 7.97540579e-03 5.48807808e-01 2.01416229e-13
 3.79433496e-02]
[0.26870241 0.17364193 0.         0.         0.21690993]
[0.00000000e+00 2.22044605e-16 5.39314665e-01 5.17499661e-13
 1.19279515e-01]
[0.0069516  0.         0.97591584 0.         0.07144931]
[8.84371779e-02 6.77066644e-01 2.78186623e-01 5.56789697e-08
 7.23704689e-03]
[0.75560614 0.         0.         0.         0.03256911]
[0.58911915 0.         0.15057608 0.15464711 0.        ]
[0.15391417 0.00071825 0.21034358 0.18283087 0.06695924]
[1.96086301 0.02466129 0.05125165 0.09293225 0.02714149]
[0.00000000e+00 2.36873864e-05 4.25788944e-01 0.00000000e+00
 0.00000000e+00]
[0.00000000e+00 0.00000000e+00 1.22268738e-02 2.07659701e+00
 1.68014962e-04]
[0.93498474 0.09559188 0.         0.         0.11950947]
[2.12686139e+00 0.00000000e+00 0.00000000e+00 0.00000000e+00
 1.27998750e-03]
[0.00000000e+00 3.54153877e-11 0.00000000e+00 1.98662916e+00
 1.37273684e-03]
[1.63069612e+00 7.30230516e-03 1.40129407e-01 1.42012591e-10
 3.06089873e-02]
[5.49872482e-08 0.00000000e+00 8.40071057e-01 2.19076498e-04
 2.22044605e-16]
[0.20510464 0.         0.         0.08401775 0.        ]
[2.51066704e-08 6.30680237e-01 1.94449800e-01 8.92594679e-02
 1.10128660e-14]
[0.         0.25079861 0.18263072 0.         0.04684825]
[0.00000000e+00 0.00000000e+00 6.57439339e-01 0.00000000e+00
 3.99610528e-11]
[0.00000000e+00 1.38068101e+00 5.22852992e-04 2.22044605e-16
 0.00000000e+00]
[0.00000000e+00 7.72457296e-01 3.28993988e-01 9.29007676e-03
 4.61106322e-07]
[0.03258981 0.02264443 0.6174404  0.         0.        ]
[1.51363823e-01 1.32951837e-08 6.05492791e-01 0.00000000e+00
 0.00000000e+00]
[1.39703613e-01 3.29547763e-01 4.55866734e-01 0.00000000e+00
 1.42514276e-04]
