Cluster C0 document nos: [4, 5, 10, 11, 15, 21, 32, 39, 43]. Number of docs: 9
Cluster C1 document nos: [0, 1, 17, 19, 23, 27, 29, 31, 34, 42, 45, 46]. Number of docs: 12
Cluster C2 document nos: [13, 18, 20, 25, 26, 30, 35, 37, 41]. Number of docs: 9
Cluster C3 document nos: [2, 3, 6, 22, 24, 33, 36, 40, 44]. Number of docs: 9
Cluster C4 document nos: [7, 8, 9, 12, 14, 16, 28, 38, 47, 48, 49]. Number of docs: 11
Cluster C0 document nos: [4, 5, 10, 11, 15, 21, 32, 39, 43]. Number of docs: 9
Cluster C1 document nos: [0, 1, 17, 19, 23, 27, 29, 31, 34, 42, 45, 46]. Number of docs: 12
Cluster C2 document nos: [13, 18, 20, 25, 26, 30, 35, 37, 41]. Number of docs: 9
Cluster C3 document nos: [2, 3, 6, 22, 24, 33, 36, 40, 44]. Number of docs: 9
Cluster C4 document nos: [7, 8, 9, 12, 14, 16, 28, 38, 47, 48, 49]. Number of docs: 11
