{
    "nimfa41_res": [
        3.201708600885895,
        3.201708600885895,
        0.26500353359519563,
        6.136251086533886,
        2.0908343553872357,
        0.34814916877040847,
        1.1001062876970418,
        0.8543048300179821,
        0.45701036564292546,
        0.30189693606544166,
        0.3202226343369195,
        0.3753725300846431,
        0.3550834970363664,
        0.355066453138881,
        0.20148612813970576,
        0.23582411440061035,
        0.21283823941405194,
        0.19719608628206317,
        0.22893341429801617,
        0.22790870947998268,
        0.17626916369943513,
        0.13897435269358288,
        0.14488564878772112,
        0.11050613034155696,
        0.1221100996536072,
        0.12898413088762248,
        0.1178848388626093,
        0.11959801168128935,
        0.1074943637595424,
        0.09673886496934435,
        0.1136058049366725,
        0.09456406556519582,
        0.08909381565617504,
        0.09261381650758799,
        0.05953291703785289,
        0.05335487272203734,
        0.03962674037901198,
        0.03557070129407811
    ],
    "nimfa42_res": [
        23.496139900092018,
        23.496139900092018,
        3.309487192345934,
        3.308963722091017,
        2.415013634237919,
        5.617850503956241,
        5.122982162438624,
        3.6849933425550194,
        0.5929867308842159,
        2.5092368948430264,
        1.6488181352300801,
        1.2380280739442597,
        1.0811982027015563,
        0.9802268975285552,
        0.9217432630851705,
        0.9512844382541492,
        0.9991293349023036,
        1.058822435434701,
        1.1083106365808562,
        1.1773826573000137,
        1.241368452515756,
        1.0480078271557087,
        0.8609090955025313,
        0.7069834525540624,
        0.6101553224625733,
        0.5649112573409655,
        0.5470044190429071,
        0.5409568767163115,
        0.5407676811004559,
        0.5455970574412992,
        0.5566663392694028,
        0.5671336929038139,
        0.5604391092238874,
        0.5295543937079389,
        0.46501062898257206,
        0.3068330037116905
    ],
    "nimfa43_res": [
        100.58674256992354,
        100.58674256992354,
        37.31532619064196,
        37.31532619064196,
        3.5747322063220497
    ]
}