{
    "hals41_res": [
        0.9723016515952583,
        0.9520235454326821,
        0.9314931761892327,
        0.9246935650048467,
        0.9225688406898926,
        0.9206804174106915,
        0.9188153313762185,
        0.9167054937708334,
        0.9144525997014721,
        0.9126257242489481,
        0.9115085332296478,
        0.9108162390129381,
        0.9103037731528268,
        0.9098849794963958,
        0.9095298086384488,
        0.9092194556171226,
        0.9089379351022507,
        0.9086941503859455,
        0.9084810667954691,
        0.9082936161493662,
        0.9081296677904345,
        0.9079915803153367,
        0.9078758641857597,
        0.9077823207625716,
        0.9077082948245445,
        0.9076467450379619,
        0.9075935167064256,
        0.9075464766112763,
        0.9075039615407867,
        0.9074649563212671,
        0.9074285731974833,
        0.9073943507927492,
        0.9073618757859602,
        0.9073309428047535,
        0.907301773254035,
        0.9072744058745815,
        0.9072497025049675,
        0.9072282684223455,
        0.9072098368237873,
        0.9071941915680753,
        0.9071812533869872,
        0.9071707915250471,
        0.9071626379776094,
        0.9071567584531034,
        0.9071525583244517,
        0.9071495954092129,
        0.9071476409904838,
        0.9071464217912203,
        0.9071456489158967,
        0.9071451461586731,
        0.9071448112018318,
        0.9071445839543276,
        0.907144428042399,
        0.9071443205253458,
        0.9071442457914577,
        0.9071441935824873,
        0.9071441569890109,
        0.9071441313123404,
        0.9071441132894545,
        0.9071441006217592,
        0.9071440917073794,
        0.9071440854289246,
        0.907144081003638,
        0.9071440778824171,
        0.9071440756796892,
        0.9071440741242938,
        0.9071440730253071,
        0.9071440722484323,
        0.9071440716990473,
        0.9071440713104075,
        0.9071440710353985,
        0.9071440708407441,
        0.9071440707029307,
        0.9071440706053371,
        0.90714407053621,
        0.907144070487235,
        0.907144070452529,
        0.9071440704279294,
        0.90714407041049,
        0.9071440703981245,
        0.907144070389355,
        0.9071440703831347,
        0.9071440703787218,
        0.9071440703755909,
        0.9071440703733687,
        0.9071440703717918,
        0.9071440703706724,
        0.9071440703698775,
        0.9071440703693131,
        0.9071440703689122,
        0.9071440703686275,
        0.9071440703684254,
        0.9071440703682817,
        0.9071440703681796,
        0.9071440703681071,
        0.9071440703680554,
        0.9071440703680189,
        0.9071440703679926,
        0.9071440703679742,
        0.907144070367961,
        0.9071440703679517,
        0.9071440703679451,
        0.9071440703679401,
        0.9071440703679369,
        0.9071440703679345,
        0.9071440703679329,
        0.9071440703679315,
        0.9071440703679308,
        0.90714407036793,
        0.9071440703679295,
        0.9071440703679293,
        0.9071440703679291,
        0.907144070367929,
        0.9071440703679289,
        0.9071440703679287,
        0.9071440703679287,
        0.9071440703679287,
        0.9071440703679285,
        0.9071440703679285,
        0.9071440703679285,
        0.9071440703679285,
        0.9071440703679285,
        0.9071440703679285,
        0.9071440703679285,
        0.9071440703679285,
        0.9071440703679285,
        0.9071440703679285,
        0.9071440703679285,
        0.9071440703679285,
        0.9071440703679285,
        0.9071440703679285,
        0.9071440703679285,
        0.9071440703679285,
        0.9071440703679285,
        0.9071440703679285,
        0.9071440703679284,
        0.9071440703679285,
        0.9071440703679285,
        0.9071440703679285,
        0.9071440703679285,
        0.9071440703679285,
        0.9071440703679285,
        0.9071440703679285,
        0.9071440703679285,
        0.9071440703679285,
        0.9071440703679285,
        0.9071440703679285,
        0.9071440703679285,
        0.9071440703679285,
        0.9071440703679285,
        0.9071440703679285,
        0.9071440703679285,
        0.9071440703679285,
        0.9071440703679285,
        0.9071440703679285,
        0.9071440703679285,
        0.9071440703679285,
        0.9071440703679285,
        0.9071440703679285,
        0.9071440703679285,
        0.9071440703679285,
        0.9071440703679285,
        0.9071440703679285,
        0.9071440703679285,
        0.9071440703679285,
        0.9071440703679285,
        0.9071440703679285,
        0.9071440703679285,
        0.9071440703679285,
        0.9071440703679285,
        0.9071440703679285,
        0.9071440703679285,
        0.9071440703679285,
        0.9071440703679285,
        0.9071440703679285,
        0.9071440703679285,
        0.9071440703679285,
        0.9071440703679285,
        0.9071440703679285,
        0.9071440703679285,
        0.9071440703679285,
        0.9071440703679285,
        0.9071440703679285,
        0.9071440703679285,
        0.9071440703679285,
        0.9071440703679285,
        0.9071440703679285,
        0.9071440703679285,
        0.9071440703679285,
        0.9071440703679285,
        0.9071440703679285,
        0.9071440703679285,
        0.9071440703679285,
        0.9071440703679285,
        0.9071440703679285,
        0.9071440703679285,
        0.9071440703679287,
        0.9071440703679285,
        0.9071440703679285,
        0.9071440703679285,
        0.9071440703679285,
        0.9071440703679285,
        0.9071440703679285,
        0.9071440703679285,
        0.9071440703679285,
        0.9071440703679285,
        0.9071440703679285,
        0.9071440703679285,
        0.9071440703679285,
        0.9071440703679285,
        0.9071440703679284,
        0.9071440703679285,
        0.9071440703679285,
        0.9071440703679285,
        0.9071440703679285,
        0.9071440703679285,
        0.9071440703679285,
        0.9071440703679285,
        0.9071440703679285,
        0.9071440703679285,
        0.9071440703679285,
        0.9071440703679285,
        0.9071440703679285,
        0.9071440703679285,
        0.9071440703679287,
        0.9071440703679285,
        0.9071440703679285,
        0.9071440703679285,
        0.9071440703679285,
        0.9071440703679285,
        0.9071440703679287,
        0.9071440703679285,
        0.9071440703679285,
        0.9071440703679285,
        0.9071440703679285,
        0.9071440703679285,
        0.9071440703679285,
        0.9071440703679285,
        0.9071440703679285,
        0.9071440703679285,
        0.9071440703679285,
        0.9071440703679285,
        0.9071440703679285,
        0.9071440703679285,
        0.9071440703679285,
        0.9071440703679285,
        0.9071440703679285,
        0.9071440703679285,
        0.9071440703679285,
        0.9071440703679285,
        0.9071440703679285,
        0.9071440703679285,
        0.9071440703679285,
        0.9071440703679285,
        0.9071440703679285,
        0.9071440703679285,
        0.9071440703679285,
        0.9071440703679285,
        0.9071440703679285,
        0.9071440703679285,
        0.9071440703679285,
        0.9071440703679285,
        0.9071440703679285,
        0.9071440703679285,
        0.9071440703679285,
        0.9071440703679285,
        0.9071440703679285,
        0.9071440703679285,
        0.9071440703679285,
        0.9071440703679285,
        0.9071440703679285,
        0.9071440703679285,
        0.9071440703679285,
        0.9071440703679285,
        0.9071440703679285,
        0.9071440703679285,
        0.9071440703679285,
        0.9071440703679285,
        0.9071440703679285,
        0.9071440703679285,
        0.9071440703679285,
        0.9071440703679285,
        0.9071440703679285,
        0.9071440703679285,
        0.9071440703679285,
        0.9071440703679285,
        0.9071440703679285,
        0.9071440703679285,
        0.9071440703679285,
        0.9071440703679285,
        0.9071440703679285,
        0.9071440703679285,
        0.9071440703679285,
        0.9071440703679285,
        0.9071440703679285,
        0.9071440703679285,
        0.9071440703679285,
        0.9071440703679285,
        0.9071440703679285,
        0.9071440703679285,
        0.9071440703679285,
        0.9071440703679285,
        0.9071440703679285,
        0.9071440703679285,
        0.9071440703679285,
        0.9071440703679285,
        0.9071440703679285,
        0.9071440703679285,
        0.9071440703679285,
        0.9071440703679285,
        0.9071440703679287,
        0.9071440703679285,
        0.9071440703679287,
        0.9071440703679285,
        0.9071440703679285,
        0.9071440703679285,
        0.9071440703679285,
        0.9071440703679285,
        0.9071440703679285,
        0.9071440703679285,
        0.9071440703679285,
        0.9071440703679285,
        0.9071440703679285,
        0.9071440703679285,
        0.9071440703679285,
        0.9071440703679285,
        0.9071440703679285,
        0.9071440703679285,
        0.9071440703679285,
        0.9071440703679285,
        0.9071440703679285,
        0.9071440703679285,
        0.9071440703679285,
        0.9071440703679285,
        0.9071440703679285,
        0.9071440703679285,
        0.9071440703679285,
        0.9071440703679285,
        0.9071440703679285,
        0.9071440703679285,
        0.9071440703679285,
        0.9071440703679285,
        0.9071440703679285,
        0.9071440703679285,
        0.9071440703679285,
        0.9071440703679285,
        0.9071440703679285,
        0.9071440703679285,
        0.9071440703679285,
        0.9071440703679285,
        0.9071440703679285,
        0.9071440703679285,
        0.9071440703679285,
        0.9071440703679285,
        0.9071440703679285,
        0.9071440703679285,
        0.9071440703679285,
        0.9071440703679285,
        0.9071440703679285,
        0.9071440703679285,
        0.9071440703679285,
        0.9071440703679285,
        0.9071440703679285,
        0.9071440703679285,
        0.9071440703679285,
        0.9071440703679285,
        0.9071440703679285,
        0.9071440703679285,
        0.9071440703679285,
        0.9071440703679285,
        0.9071440703679285,
        0.9071440703679285,
        0.9071440703679285,
        0.9071440703679285,
        0.9071440703679285,
        0.9071440703679285,
        0.9071440703679285,
        0.9071440703679285,
        0.9071440703679285,
        0.9071440703679287,
        0.9071440703679285,
        0.9071440703679285,
        0.9071440703679285,
        0.9071440703679285,
        0.9071440703679285,
        0.9071440703679285,
        0.9071440703679285,
        0.9071440703679285,
        0.9071440703679285,
        0.9071440703679285,
        0.9071440703679285,
        0.9071440703679285,
        0.9071440703679285,
        0.9071440703679285,
        0.9071440703679285,
        0.9071440703679285,
        0.9071440703679285,
        0.9071440703679285,
        0.9071440703679285,
        0.9071440703679285
    ],
    "hals42_res": [
        0.9818204850596867,
        0.975792997134573,
        0.9681284765318161,
        0.9623084663345297,
        0.9600591504693993,
        0.9588592792716052,
        0.9581042684920407,
        0.9575368703311857,
        0.9570326753265368,
        0.9565846362423102,
        0.9561977274683751,
        0.9558565436993567,
        0.9555279061882229,
        0.9551870677601547,
        0.9548255779222244,
        0.954467234360402,
        0.9541602624316462,
        0.9539424322962158,
        0.9538147546155838,
        0.9537484219989261,
        0.9537160945381568,
        0.9537002101404832,
        0.9536923257387515,
        0.9536882222828466,
        0.9536859544974269,
        0.9536846511997098,
        0.9536838808516457,
        0.9536834144158421,
        0.9536831254241251,
        0.9536829426898784,
        0.9536828252490995,
        0.9536827486252385,
        0.9536826978890307,
        0.9536826637945851,
        0.9536826405569179,
        0.9536826244879517,
        0.9536826132193742,
        0.9536826052067615,
        0.9536825994276358,
        0.9536825952012956,
        0.9536825920691635,
        0.9536825897186402,
        0.9536825879340317,
        0.9536825865646313,
        0.9536825855037665,
        0.9536825846749675,
        0.9536825840226901,
        0.9536825835060695,
        0.9536825830946605,
        0.9536825827654847,
        0.9536825825010846,
        0.9536825822880279,
        0.9536825821158851,
        0.9536825819765916,
        0.9536825818637096,
        0.9536825817720955,
        0.9536825816976503,
        0.9536825816370936,
        0.9536825815877936,
        0.9536825815476312,
        0.9536825815148947,
        0.9536825814881997,
        0.953682581466428,
        0.953682581448667,
        0.9536825814341746,
        0.953682581422347,
        0.9536825814126927,
        0.9536825814048112,
        0.9536825813983766,
        0.9536825813931227,
        0.9536825813888324,
        0.9536825813853289,
        0.9536825813824678,
        0.9536825813801312,
        0.9536825813782228,
        0.9536825813766641,
        0.9536825813753911,
        0.9536825813743515,
        0.9536825813735023,
        0.9536825813728086,
        0.9536825813722423,
        0.9536825813717795,
        0.9536825813714016,
        0.9536825813710929,
        0.9536825813708407,
        0.9536825813706348,
        0.9536825813704666,
        0.9536825813703292,
        0.953682581370217,
        0.9536825813701253,
        0.9536825813700504,
        0.9536825813699894,
        0.9536825813699393,
        0.9536825813698985,
        0.9536825813698652,
        0.953682581369838,
        0.9536825813698158,
        0.9536825813697976,
        0.9536825813697828,
        0.9536825813697707,
        0.9536825813697608,
        0.9536825813697527,
        0.953682581369746,
        0.9536825813697407,
        0.9536825813697363,
        0.9536825813697327,
        0.9536825813697297,
        0.9536825813697274,
        0.9536825813697254,
        0.9536825813697238,
        0.9536825813697225,
        0.9536825813697214,
        0.9536825813697205,
        0.9536825813697198,
        0.9536825813697193,
        0.9536825813697187,
        0.9536825813697184,
        0.9536825813697181,
        0.9536825813697178,
        0.9536825813697176,
        0.9536825813697174,
        0.9536825813697173,
        0.9536825813697172,
        0.9536825813697172,
        0.953682581369717,
        0.953682581369717,
        0.953682581369717,
        0.9536825813697168,
        0.9536825813697168,
        0.9536825813697167,
        0.9536825813697167,
        0.9536825813697167,
        0.9536825813697167,
        0.9536825813697167,
        0.9536825813697167,
        0.9536825813697167,
        0.9536825813697167,
        0.9536825813697167,
        0.9536825813697167,
        0.9536825813697167,
        0.9536825813697166,
        0.9536825813697167,
        0.9536825813697167,
        0.9536825813697166,
        0.9536825813697167,
        0.9536825813697167,
        0.9536825813697167,
        0.9536825813697167,
        0.9536825813697167,
        0.9536825813697167,
        0.9536825813697166,
        0.9536825813697167,
        0.9536825813697166,
        0.9536825813697166,
        0.9536825813697167,
        0.9536825813697167,
        0.9536825813697167,
        0.9536825813697167,
        0.9536825813697166,
        0.9536825813697166,
        0.9536825813697166,
        0.9536825813697166,
        0.9536825813697167,
        0.9536825813697166,
        0.9536825813697166,
        0.9536825813697166,
        0.9536825813697167,
        0.9536825813697166,
        0.9536825813697166,
        0.9536825813697166,
        0.9536825813697166,
        0.9536825813697167,
        0.9536825813697167,
        0.9536825813697167,
        0.9536825813697167,
        0.9536825813697166,
        0.9536825813697166,
        0.9536825813697167,
        0.9536825813697166,
        0.9536825813697167,
        0.9536825813697167,
        0.9536825813697166,
        0.9536825813697166,
        0.9536825813697167,
        0.9536825813697167,
        0.9536825813697167,
        0.9536825813697166,
        0.9536825813697167,
        0.9536825813697166,
        0.9536825813697167,
        0.9536825813697167,
        0.9536825813697167,
        0.9536825813697167,
        0.9536825813697166,
        0.9536825813697167,
        0.9536825813697167,
        0.9536825813697166,
        0.9536825813697166,
        0.9536825813697166,
        0.9536825813697166,
        0.9536825813697166,
        0.9536825813697167,
        0.9536825813697167,
        0.9536825813697167,
        0.9536825813697167,
        0.9536825813697167,
        0.9536825813697166,
        0.9536825813697167,
        0.9536825813697167,
        0.9536825813697166,
        0.9536825813697167,
        0.9536825813697166,
        0.9536825813697166,
        0.9536825813697167,
        0.9536825813697166,
        0.9536825813697167,
        0.9536825813697166,
        0.9536825813697167,
        0.9536825813697166,
        0.9536825813697167,
        0.9536825813697166,
        0.9536825813697166,
        0.9536825813697167,
        0.9536825813697167,
        0.9536825813697167,
        0.9536825813697167,
        0.9536825813697166,
        0.9536825813697166,
        0.9536825813697166,
        0.9536825813697167,
        0.9536825813697167,
        0.9536825813697167,
        0.9536825813697166,
        0.9536825813697167,
        0.9536825813697166,
        0.9536825813697167,
        0.9536825813697166,
        0.9536825813697167,
        0.9536825813697167,
        0.9536825813697166,
        0.9536825813697167,
        0.9536825813697166,
        0.9536825813697166,
        0.9536825813697166,
        0.9536825813697167,
        0.9536825813697166,
        0.9536825813697166,
        0.9536825813697167,
        0.9536825813697167,
        0.9536825813697166,
        0.9536825813697167,
        0.9536825813697167,
        0.9536825813697167,
        0.9536825813697167,
        0.9536825813697167,
        0.9536825813697167,
        0.9536825813697166,
        0.9536825813697166,
        0.9536825813697166,
        0.9536825813697167,
        0.9536825813697167,
        0.9536825813697167,
        0.9536825813697166,
        0.9536825813697166,
        0.9536825813697166,
        0.9536825813697166,
        0.9536825813697166,
        0.9536825813697167,
        0.9536825813697167,
        0.9536825813697166,
        0.9536825813697167,
        0.9536825813697167,
        0.9536825813697167,
        0.9536825813697166,
        0.9536825813697166,
        0.9536825813697167,
        0.9536825813697167,
        0.9536825813697167,
        0.9536825813697167,
        0.9536825813697166,
        0.9536825813697166,
        0.9536825813697167,
        0.9536825813697166,
        0.9536825813697167,
        0.9536825813697167,
        0.9536825813697167,
        0.9536825813697166,
        0.9536825813697166,
        0.9536825813697167,
        0.9536825813697167,
        0.9536825813697166,
        0.9536825813697166,
        0.9536825813697166,
        0.9536825813697167,
        0.9536825813697166,
        0.9536825813697166,
        0.9536825813697166,
        0.9536825813697167,
        0.9536825813697166,
        0.9536825813697166,
        0.9536825813697167,
        0.9536825813697167,
        0.9536825813697167,
        0.9536825813697167,
        0.9536825813697166,
        0.9536825813697166,
        0.9536825813697166,
        0.9536825813697167,
        0.9536825813697167,
        0.9536825813697167,
        0.9536825813697166,
        0.9536825813697166,
        0.9536825813697166,
        0.9536825813697166,
        0.9536825813697167,
        0.9536825813697166,
        0.9536825813697167,
        0.9536825813697166,
        0.9536825813697166,
        0.9536825813697166,
        0.9536825813697166,
        0.9536825813697166,
        0.9536825813697167,
        0.9536825813697166,
        0.9536825813697166,
        0.9536825813697166,
        0.9536825813697166,
        0.9536825813697167,
        0.9536825813697166,
        0.9536825813697166,
        0.9536825813697166,
        0.9536825813697166,
        0.9536825813697166,
        0.9536825813697166,
        0.9536825813697166,
        0.9536825813697166,
        0.9536825813697166,
        0.9536825813697166,
        0.9536825813697166,
        0.9536825813697166,
        0.9536825813697166,
        0.9536825813697166,
        0.9536825813697166,
        0.9536825813697166,
        0.9536825813697166,
        0.9536825813697167,
        0.9536825813697166,
        0.9536825813697166,
        0.9536825813697166,
        0.9536825813697166,
        0.9536825813697167,
        0.9536825813697166,
        0.9536825813697166,
        0.9536825813697166,
        0.9536825813697166,
        0.9536825813697166,
        0.9536825813697166,
        0.9536825813697166,
        0.9536825813697167,
        0.9536825813697166,
        0.9536825813697166,
        0.9536825813697166,
        0.9536825813697167,
        0.9536825813697166,
        0.9536825813697166,
        0.9536825813697166,
        0.9536825813697166,
        0.9536825813697166,
        0.9536825813697166,
        0.9536825813697166,
        0.9536825813697166,
        0.9536825813697166,
        0.9536825813697166,
        0.9536825813697167,
        0.9536825813697166,
        0.9536825813697166,
        0.9536825813697166,
        0.9536825813697166,
        0.9536825813697166,
        0.9536825813697166,
        0.9536825813697166,
        0.9536825813697166,
        0.9536825813697166,
        0.9536825813697167,
        0.9536825813697167,
        0.9536825813697167,
        0.9536825813697166,
        0.9536825813697166,
        0.9536825813697166,
        0.9536825813697166,
        0.9536825813697166,
        0.9536825813697166,
        0.9536825813697167,
        0.9536825813697166,
        0.9536825813697166,
        0.9536825813697166,
        0.9536825813697166,
        0.9536825813697166,
        0.9536825813697167,
        0.9536825813697166
    ],
    "hals43_res": [
        0.9849208299064671,
        0.9821800890544304,
        0.9786470237449957,
        0.9741962393721934,
        0.9719514180649684,
        0.9711036936379798,
        0.970723234173961,
        0.9705466226273769,
        0.9704476883931229,
        0.9703707328489366,
        0.9702867428136449,
        0.9701842857494033,
        0.9700716303583655,
        0.9699597058191252,
        0.9698572688320765,
        0.9697619925743844,
        0.9696691827683406,
        0.9695855139703131,
        0.9695087905477567,
        0.9694223597807207,
        0.9693150424375262,
        0.9691874456272539,
        0.9690462527423186,
        0.9689020397032639,
        0.968768256929937,
        0.9686589005025497,
        0.9685791768276237,
        0.9685263997849023,
        0.9684928786027271,
        0.9684715957608175,
        0.9684581008072827,
        0.9684495969472249,
        0.9684442689822051,
        0.9684409485525514,
        0.9684388884047994,
        0.9684376318881992,
        0.9684369752040922,
        0.9684366405423771,
        0.9684364684202492,
        0.9684363797674793,
        0.9684363341334066,
        0.9684363106736846,
        0.9684362986178735,
        0.9684362924258666,
        0.9684362892489145,
        0.9684362876207817,
        0.9684362867874632,
        0.9684362863615582,
        0.968436286144282,
        0.9684362860336455,
        0.9684362859773881,
        0.9684362859488248,
        0.968436285934344,
        0.9684362859270136,
        0.968436285923308,
        0.9684362859214374,
        0.9684362859204944,
        0.9684362859200195,
        0.9684362859197806,
        0.9684362859196606,
        0.9684362859196004,
        0.9684362859195701,
        0.9684362859195549,
        0.9684362859195473,
        0.9684362859195436,
        0.9684362859195417,
        0.9684362859195407,
        0.9684362859195401,
        0.96843628591954,
        0.9684362859195398,
        0.9684362859195397,
        0.9684362859195397,
        0.9684362859195397,
        0.9684362859195397,
        0.9684362859195397,
        0.9684362859195397,
        0.9684362859195397,
        0.9684362859195397,
        0.9684362859195397,
        0.9684362859195397,
        0.9684362859195397,
        0.9684362859195397,
        0.9684362859195397,
        0.9684362859195397,
        0.9684362859195397,
        0.9684362859195397,
        0.9684362859195397,
        0.9684362859195397,
        0.9684362859195397,
        0.9684362859195397,
        0.9684362859195397,
        0.9684362859195397,
        0.9684362859195397,
        0.9684362859195397,
        0.9684362859195397,
        0.9684362859195397,
        0.9684362859195397,
        0.9684362859195397,
        0.9684362859195397,
        0.9684362859195397,
        0.9684362859195397,
        0.9684362859195397,
        0.9684362859195397,
        0.9684362859195397,
        0.9684362859195397,
        0.9684362859195397,
        0.9684362859195397,
        0.9684362859195397,
        0.9684362859195397,
        0.9684362859195397,
        0.9684362859195397,
        0.9684362859195397,
        0.9684362859195397,
        0.9684362859195397,
        0.9684362859195397,
        0.9684362859195397,
        0.9684362859195397,
        0.9684362859195397,
        0.9684362859195397,
        0.9684362859195397,
        0.9684362859195397,
        0.9684362859195397,
        0.9684362859195397,
        0.9684362859195397,
        0.9684362859195397,
        0.9684362859195397,
        0.9684362859195397,
        0.9684362859195397,
        0.9684362859195397,
        0.9684362859195397,
        0.9684362859195397,
        0.9684362859195397,
        0.9684362859195397,
        0.9684362859195397,
        0.9684362859195397,
        0.9684362859195397,
        0.9684362859195397,
        0.9684362859195397,
        0.9684362859195397,
        0.9684362859195397,
        0.9684362859195397,
        0.9684362859195397,
        0.9684362859195397,
        0.9684362859195397,
        0.9684362859195397,
        0.9684362859195397,
        0.9684362859195397,
        0.9684362859195397,
        0.9684362859195397,
        0.9684362859195397,
        0.9684362859195397,
        0.9684362859195397,
        0.9684362859195397,
        0.9684362859195397,
        0.9684362859195397,
        0.9684362859195397,
        0.9684362859195397,
        0.9684362859195397,
        0.9684362859195397,
        0.9684362859195397,
        0.9684362859195397,
        0.9684362859195397,
        0.9684362859195397,
        0.9684362859195397,
        0.9684362859195397,
        0.9684362859195397,
        0.9684362859195397,
        0.9684362859195397,
        0.9684362859195397,
        0.9684362859195397,
        0.9684362859195397,
        0.9684362859195397,
        0.9684362859195397,
        0.9684362859195397,
        0.9684362859195397,
        0.9684362859195397,
        0.9684362859195397,
        0.9684362859195397,
        0.9684362859195397,
        0.9684362859195397,
        0.9684362859195397,
        0.9684362859195397,
        0.9684362859195397,
        0.9684362859195397,
        0.9684362859195397,
        0.9684362859195397,
        0.9684362859195397,
        0.9684362859195397,
        0.9684362859195397,
        0.9684362859195397,
        0.9684362859195397,
        0.9684362859195397,
        0.9684362859195397,
        0.9684362859195397,
        0.9684362859195397,
        0.9684362859195397,
        0.9684362859195397,
        0.9684362859195397,
        0.9684362859195397,
        0.9684362859195397,
        0.9684362859195397,
        0.9684362859195397,
        0.9684362859195397,
        0.9684362859195397,
        0.9684362859195397,
        0.9684362859195397,
        0.9684362859195397,
        0.9684362859195397,
        0.9684362859195397,
        0.9684362859195397,
        0.9684362859195397,
        0.9684362859195397,
        0.9684362859195397,
        0.9684362859195397,
        0.9684362859195397,
        0.9684362859195397,
        0.9684362859195397,
        0.9684362859195397,
        0.9684362859195397,
        0.9684362859195397,
        0.9684362859195397,
        0.9684362859195397,
        0.9684362859195397,
        0.9684362859195397,
        0.9684362859195397,
        0.9684362859195397,
        0.9684362859195397,
        0.9684362859195397,
        0.9684362859195397,
        0.9684362859195397,
        0.9684362859195397,
        0.9684362859195397,
        0.9684362859195397,
        0.9684362859195397,
        0.9684362859195397,
        0.9684362859195397,
        0.9684362859195397,
        0.9684362859195397,
        0.9684362859195397,
        0.9684362859195397,
        0.9684362859195397,
        0.9684362859195397,
        0.9684362859195397,
        0.9684362859195397,
        0.9684362859195397,
        0.9684362859195397,
        0.9684362859195397,
        0.9684362859195397,
        0.9684362859195397,
        0.9684362859195397,
        0.9684362859195397,
        0.9684362859195397,
        0.9684362859195397,
        0.9684362859195397,
        0.9684362859195397,
        0.9684362859195397,
        0.9684362859195397,
        0.9684362859195397,
        0.9684362859195397,
        0.9684362859195397,
        0.9684362859195397,
        0.9684362859195397,
        0.9684362859195397,
        0.9684362859195397,
        0.9684362859195397,
        0.9684362859195397,
        0.9684362859195397,
        0.9684362859195397,
        0.9684362859195397,
        0.9684362859195397,
        0.9684362859195397,
        0.9684362859195397,
        0.9684362859195397,
        0.9684362859195397,
        0.9684362859195397,
        0.9684362859195397,
        0.9684362859195397,
        0.9684362859195397,
        0.9684362859195397,
        0.9684362859195397,
        0.9684362859195397,
        0.9684362859195397,
        0.9684362859195397,
        0.9684362859195397,
        0.9684362859195397,
        0.9684362859195397,
        0.9684362859195397,
        0.9684362859195397,
        0.9684362859195397,
        0.9684362859195397,
        0.9684362859195397,
        0.9684362859195397,
        0.9684362859195397,
        0.9684362859195397,
        0.9684362859195397,
        0.9684362859195397,
        0.9684362859195397,
        0.9684362859195397,
        0.9684362859195397,
        0.9684362859195397,
        0.9684362859195397,
        0.9684362859195397,
        0.9684362859195397,
        0.9684362859195397,
        0.9684362859195397,
        0.9684362859195397,
        0.9684362859195397,
        0.9684362859195397,
        0.9684362859195397,
        0.9684362859195397,
        0.9684362859195397,
        0.9684362859195397,
        0.9684362859195397,
        0.9684362859195397,
        0.9684362859195397,
        0.9684362859195397,
        0.9684362859195397,
        0.9684362859195397,
        0.9684362859195397,
        0.9684362859195397,
        0.9684362859195397,
        0.9684362859195397,
        0.9684362859195397,
        0.9684362859195397,
        0.9684362859195397,
        0.9684362859195397,
        0.9684362859195397,
        0.9684362859195397,
        0.9684362859195397,
        0.9684362859195397,
        0.9684362859195397,
        0.9684362859195397,
        0.9684362859195397,
        0.9684362859195397,
        0.9684362859195397,
        0.9684362859195397,
        0.9684362859195397,
        0.9684362859195397,
        0.9684362859195397,
        0.9684362859195397,
        0.9684362859195397,
        0.9684362859195397,
        0.9684362859195397,
        0.9684362859195397,
        0.9684362859195397,
        0.9684362859195397,
        0.9684362859195397,
        0.9684362859195397,
        0.9684362859195397,
        0.9684362859195397,
        0.9684362859195397,
        0.9684362859195397,
        0.9684362859195397,
        0.9684362859195397,
        0.9684362859195397,
        0.9684362859195397,
        0.9684362859195397,
        0.9684362859195397,
        0.9684362859195397,
        0.9684362859195397,
        0.9684362859195397,
        0.9684362859195397,
        0.9684362859195397,
        0.9684362859195397,
        0.9684362859195397,
        0.9684362859195397,
        0.9684362859195397,
        0.9684362859195397,
        0.9684362859195397,
        0.9684362859195397,
        0.9684362859195397,
        0.9684362859195397,
        0.9684362859195397,
        0.9684362859195397,
        0.9684362859195397,
        0.9684362859195397,
        0.9684362859195397,
        0.9684362859195397,
        0.9684362859195397,
        0.9684362859195397,
        0.9684362859195397,
        0.9684362859195397,
        0.9684362859195397,
        0.9684362859195397,
        0.9684362859195397,
        0.9684362859195397,
        0.9684362859195397,
        0.9684362859195397,
        0.9684362859195397,
        0.9684362859195397,
        0.9684362859195397,
        0.9684362859195397,
        0.9684362859195397,
        0.9684362859195397,
        0.9684362859195397,
        0.9684362859195397,
        0.9684362859195397,
        0.9684362859195397,
        0.9684362859195397,
        0.9684362859195397
    ]
}