{
    "hals11_res": [
        0.9725744339142599,
        0.9522085762461897,
        0.9329820382473145,
        0.9238735678857514,
        0.9212462060227814,
        0.9194468766720978,
        0.9177963230959573,
        0.9163141101115977,
        0.9150222425716147,
        0.9139539408466241,
        0.9130472927308915,
        0.9122858272068302,
        0.911709917904809,
        0.9112534520409226,
        0.9109062675251789,
        0.9106482015553381,
        0.9104479485183735,
        0.9102880310875423,
        0.9101572232551257,
        0.9100485197768091,
        0.9099563498556142,
        0.9098777045439177,
        0.9098095395494216,
        0.9097505200975414,
        0.9097004528457886,
        0.9096590057882483,
        0.9096249147829268,
        0.9095981684996146,
        0.9095779861567482,
        0.9095624084492285,
        0.9095502949631712,
        0.9095411990708941,
        0.9095342454962253,
        0.9095288872136251,
        0.9095247549317598,
        0.9095215729881023,
        0.9095191013762625,
        0.9095171911073612,
        0.9095157160911354,
        0.9095145823463353,
        0.9095137124114957,
        0.9095130518530067,
        0.9095125512021307,
        0.9095121671755259,
        0.9095118756700314,
        0.909511656049651,
        0.9095114915008174,
        0.9095113681886468,
        0.9095112760073462,
        0.9095112074378127,
        0.9095111563723681,
        0.9095111185251319,
        0.9095110906075191,
        0.9095110699985337,
        0.9095110547640274,
        0.9095110434832376,
        0.9095110351165667,
        0.9095110289045493,
        0.9095110242865609,
        0.9095110208492653,
        0.9095110182875091,
        0.909511016375821,
        0.9095110149474064,
        0.9095110138787115,
        0.9095110130796344,
        0.9095110124821325,
        0.9095110120346435,
        0.9095110116989442,
        0.9095110114466655,
        0.9095110112567671,
        0.9095110111135816,
        0.9095110110053954,
        0.9095110109234763,
        0.9095110108613037,
        0.9095110108140039,
        0.9095110107779268,
        0.9095110107503362,
        0.9095110107291766,
        0.9095110107129016,
        0.9095110107003453,
        0.9095110106906278,
        0.9095110106830828,
        0.909511010677205,
        0.9095110106726108,
        0.9095110106690073,
        0.9095110106661712,
        0.9095110106639316,
        0.9095110106621567,
        0.9095110106607456,
        0.9095110106596196,
        0.9095110106587186,
        0.9095110106579951,
        0.9095110106574127,
        0.9095110106569423,
        0.9095110106565613,
        0.909511010656252,
        0.9095110106560002,
        0.9095110106557949,
        0.9095110106556269,
        0.9095110106554893,
        0.9095110106553765,
        0.9095110106552837,
        0.9095110106552073,
        0.9095110106551444,
        0.9095110106550923,
        0.9095110106550494,
        0.9095110106550138,
        0.9095110106549843,
        0.9095110106549599,
        0.9095110106549397,
        0.9095110106549229,
        0.9095110106549089,
        0.9095110106548973,
        0.9095110106548876,
        0.9095110106548795,
        0.9095110106548727,
        0.9095110106548673,
        0.9095110106548626,
        0.9095110106548587,
        0.9095110106548554,
        0.9095110106548527,
        0.9095110106548505,
        0.9095110106548487,
        0.9095110106548471,
        0.9095110106548457,
        0.9095110106548446,
        0.9095110106548437,
        0.909511010654843,
        0.9095110106548425,
        0.9095110106548419,
        0.9095110106548413,
        0.9095110106548411,
        0.9095110106548407,
        0.9095110106548405,
        0.9095110106548402,
        0.9095110106548401,
        0.90951101065484,
        0.9095110106548399,
        0.9095110106548397,
        0.9095110106548396,
        0.9095110106548396,
        0.9095110106548394,
        0.9095110106548394,
        0.9095110106548393,
        0.9095110106548392,
        0.9095110106548393,
        0.9095110106548392,
        0.9095110106548393,
        0.9095110106548392,
        0.9095110106548392,
        0.9095110106548392,
        0.9095110106548392,
        0.9095110106548392,
        0.9095110106548392,
        0.9095110106548392,
        0.9095110106548392,
        0.9095110106548392,
        0.9095110106548392,
        0.9095110106548392,
        0.9095110106548392,
        0.9095110106548392,
        0.9095110106548392,
        0.9095110106548392,
        0.9095110106548392,
        0.9095110106548392,
        0.9095110106548391,
        0.9095110106548392,
        0.9095110106548392,
        0.9095110106548392,
        0.9095110106548392,
        0.9095110106548392,
        0.9095110106548392,
        0.9095110106548392,
        0.9095110106548392,
        0.9095110106548392,
        0.9095110106548392,
        0.9095110106548392,
        0.9095110106548392,
        0.9095110106548392,
        0.9095110106548392,
        0.9095110106548391,
        0.9095110106548392,
        0.9095110106548392,
        0.9095110106548392,
        0.9095110106548392,
        0.9095110106548392,
        0.9095110106548392,
        0.9095110106548391,
        0.9095110106548392,
        0.9095110106548391,
        0.9095110106548392,
        0.9095110106548392,
        0.9095110106548392,
        0.9095110106548392,
        0.9095110106548391,
        0.9095110106548392,
        0.9095110106548392,
        0.9095110106548392,
        0.9095110106548392,
        0.9095110106548392,
        0.9095110106548392,
        0.9095110106548392,
        0.9095110106548391,
        0.9095110106548392,
        0.9095110106548392,
        0.9095110106548392,
        0.9095110106548391,
        0.9095110106548392,
        0.9095110106548392,
        0.9095110106548392,
        0.9095110106548392,
        0.9095110106548392,
        0.9095110106548392,
        0.9095110106548392,
        0.9095110106548392,
        0.9095110106548392,
        0.9095110106548392,
        0.9095110106548392,
        0.9095110106548392,
        0.9095110106548392,
        0.9095110106548391,
        0.9095110106548391,
        0.9095110106548392,
        0.9095110106548392,
        0.9095110106548391,
        0.9095110106548391,
        0.9095110106548392,
        0.9095110106548392,
        0.9095110106548391,
        0.9095110106548392,
        0.9095110106548392,
        0.9095110106548392,
        0.9095110106548392,
        0.9095110106548391,
        0.9095110106548392,
        0.9095110106548392,
        0.9095110106548392,
        0.9095110106548392,
        0.9095110106548392,
        0.9095110106548391,
        0.9095110106548392,
        0.9095110106548391,
        0.9095110106548392,
        0.9095110106548392,
        0.9095110106548392,
        0.9095110106548392,
        0.9095110106548392,
        0.9095110106548392,
        0.9095110106548392,
        0.9095110106548392,
        0.9095110106548392,
        0.9095110106548392,
        0.9095110106548392,
        0.9095110106548392,
        0.9095110106548392,
        0.9095110106548392,
        0.9095110106548392,
        0.9095110106548392,
        0.9095110106548392,
        0.9095110106548392,
        0.9095110106548392,
        0.9095110106548392,
        0.9095110106548392,
        0.9095110106548392,
        0.9095110106548392,
        0.9095110106548392,
        0.9095110106548392,
        0.9095110106548392,
        0.9095110106548392,
        0.9095110106548392,
        0.9095110106548392,
        0.9095110106548392,
        0.9095110106548391,
        0.9095110106548392,
        0.9095110106548392,
        0.9095110106548392,
        0.9095110106548392,
        0.9095110106548392,
        0.9095110106548392,
        0.9095110106548392,
        0.9095110106548392,
        0.9095110106548392,
        0.9095110106548392,
        0.9095110106548391,
        0.9095110106548392,
        0.9095110106548392,
        0.9095110106548391,
        0.9095110106548391,
        0.9095110106548391,
        0.9095110106548391,
        0.9095110106548392,
        0.9095110106548392,
        0.9095110106548391,
        0.9095110106548392,
        0.9095110106548392,
        0.9095110106548392,
        0.9095110106548392,
        0.9095110106548392,
        0.9095110106548392,
        0.9095110106548392,
        0.9095110106548391,
        0.9095110106548392,
        0.9095110106548392,
        0.9095110106548392,
        0.9095110106548392,
        0.9095110106548392,
        0.9095110106548392,
        0.9095110106548392,
        0.9095110106548392,
        0.9095110106548392,
        0.9095110106548392,
        0.9095110106548391,
        0.9095110106548392,
        0.9095110106548392,
        0.9095110106548392,
        0.9095110106548392,
        0.9095110106548392,
        0.9095110106548392,
        0.9095110106548391,
        0.9095110106548392,
        0.9095110106548392,
        0.9095110106548392,
        0.9095110106548392,
        0.9095110106548392,
        0.9095110106548392,
        0.9095110106548392,
        0.9095110106548392,
        0.9095110106548392,
        0.9095110106548392,
        0.9095110106548392,
        0.9095110106548391,
        0.9095110106548392,
        0.9095110106548392,
        0.9095110106548392,
        0.9095110106548392,
        0.9095110106548392,
        0.9095110106548392,
        0.9095110106548392,
        0.9095110106548392,
        0.9095110106548392,
        0.9095110106548392,
        0.9095110106548392,
        0.9095110106548392,
        0.9095110106548392,
        0.9095110106548392,
        0.9095110106548392,
        0.9095110106548392,
        0.9095110106548392,
        0.9095110106548392,
        0.9095110106548392,
        0.9095110106548392,
        0.9095110106548392,
        0.9095110106548392,
        0.9095110106548392,
        0.9095110106548392,
        0.9095110106548392,
        0.9095110106548392,
        0.9095110106548392,
        0.9095110106548392,
        0.9095110106548392,
        0.9095110106548392,
        0.9095110106548392,
        0.9095110106548392,
        0.9095110106548392,
        0.9095110106548392,
        0.9095110106548392,
        0.9095110106548392,
        0.9095110106548392,
        0.9095110106548392,
        0.9095110106548392,
        0.9095110106548392,
        0.9095110106548392,
        0.9095110106548392,
        0.9095110106548392,
        0.9095110106548392,
        0.9095110106548392,
        0.9095110106548392,
        0.9095110106548392,
        0.9095110106548391,
        0.9095110106548392,
        0.9095110106548392,
        0.9095110106548392,
        0.9095110106548392,
        0.9095110106548392,
        0.9095110106548392,
        0.9095110106548392,
        0.9095110106548392,
        0.9095110106548392,
        0.9095110106548392,
        0.9095110106548392,
        0.9095110106548392,
        0.9095110106548392,
        0.9095110106548391,
        0.9095110106548392,
        0.9095110106548392,
        0.9095110106548392,
        0.9095110106548392,
        0.9095110106548392,
        0.9095110106548392,
        0.9095110106548392
    ],
    "hals12_res": [
        0.9816609904975642,
        0.976272238387754,
        0.9696056126846327,
        0.9634263170865593,
        0.9606087536240827,
        0.9590861301180654,
        0.9581041456480787,
        0.957388239365202,
        0.9567313828143791,
        0.9560542018975312,
        0.9554644084467169,
        0.9551406451549418,
        0.9549846789203303,
        0.9549141900958897,
        0.9548816750120617,
        0.9548646867180136,
        0.9548546085810808,
        0.9548480024935023,
        0.954843301066953,
        0.9548397329328118,
        0.954836910245877,
        0.954834610412004,
        0.9548326957992632,
        0.9548310777538453,
        0.9548296943100768,
        0.954828499408632,
        0.9548274650993316,
        0.9548265645260362,
        0.9548257741106092,
        0.9548250765533576,
        0.9548244578697076,
        0.95482390690373,
        0.9548234142805813,
        0.9548229726555887,
        0.9548225755739194,
        0.9548222173095191,
        0.9548218930981067,
        0.9548215988906953,
        0.9548213312356455,
        0.9548210871205967,
        0.9548208639379219,
        0.9548206586019309,
        0.9548204685605715,
        0.954820292178047,
        0.9548201281134341,
        0.9548199752245253,
        0.9548198324917784,
        0.9548196990163443,
        0.9548195740448697,
        0.9548194568824151,
        0.9548193469001945,
        0.9548192435362193,
        0.9548191462727788,
        0.9548190546140701,
        0.9548189681430956,
        0.9548188864817685,
        0.9548188092843771,
        0.9548187362323255,
        0.9548186670464157,
        0.9548186015561214,
        0.954818539672907,
        0.9548184811459723,
        0.9548184257628727,
        0.9548183733679313,
        0.9548183238095123,
        0.9548182768851374,
        0.9548182324097929,
        0.9548181902303875,
        0.9548181502085358,
        0.9548181122190655,
        0.9548180761333117,
        0.9548180418274635,
        0.9548180091938914,
        0.9548179781327478,
        0.9548179485594557,
        0.9548179207289097,
        0.9548178945935982,
        0.9548178700612779,
        0.9548178470237678,
        0.9548178253780529,
        0.9548178050301172,
        0.95481778589291,
        0.9548177678842481,
        0.9548177509287522,
        0.9548177349566769,
        0.9548177199034774,
        0.9548177057096077,
        0.9548176923204521,
        0.9548176796855509,
        0.9548176677572857,
        0.9548176564910288,
        0.9548176458442525,
        0.9548176357784715,
        0.9548176262584546,
        0.9548176172511506,
        0.9548176087258812,
        0.9548176006544534,
        0.9548175930103499,
        0.9548175857685997,
        0.95481757890589,
        0.9548175724002614,
        0.9548175662311765,
        0.9548175603792739,
        0.954817554825694,
        0.9548175495533338,
        0.954817544546574,
        0.9548175397907944,
        0.954817535272235,
        0.9548175309779566,
        0.954817526895876,
        0.9548175230147096,
        0.9548175193040291,
        0.9548175157472839,
        0.9548175123373273,
        0.9548175090676375,
        0.9548175059317519,
        0.9548175029233912,
        0.9548175000365497,
        0.954817497265692,
        0.9548174946055978,
        0.954817492051315,
        0.9548174895981425,
        0.9548174872412902,
        0.9548174849764367,
        0.9548174827995255,
        0.95481748070678,
        0.9548174786946096,
        0.9548174767595742,
        0.9548174748984006,
        0.9548174731079719,
        0.9548174713853168,
        0.9548174697276037,
        0.9548174681321233,
        0.9548174665962461,
        0.9548174651174685,
        0.9548174636934451,
        0.9548174623218206,
        0.9548174610001948,
        0.9548174597265084,
        0.9548174584988413,
        0.9548174573153668,
        0.9548174561743424,
        0.9548174550741063,
        0.9548174540130673,
        0.954817452989723,
        0.9548174520027837,
        0.9548174510508729,
        0.954817450132659,
        0.9548174492468577,
        0.9548174483922326,
        0.9548174475675666,
        0.9548174467716669,
        0.9548174460034373,
        0.9548174452618772,
        0.9548174445459934,
        0.9548174438548256,
        0.9548174431874557,
        0.9548174425430029,
        0.9548174419206222,
        0.9548174413195024,
        0.9548174407388649,
        0.9548174401779621,
        0.9548174396360714,
        0.9548174391124986,
        0.9548174386065832,
        0.9548174381176896,
        0.954817437645207,
        0.9548174371885495,
        0.95481743674711,
        0.9548174363200412,
        0.9548174359067294,
        0.9548174355066937,
        0.9548174351194793,
        0.9548174347446479,
        0.9548174343817775,
        0.9548174340304585,
        0.9548174336902987,
        0.9548174333609211,
        0.9548174330419624,
        0.9548174327330676,
        0.9548174324338907,
        0.9548174321441061,
        0.9548174318634015,
        0.9548174315914785,
        0.9548174313280898,
        0.9548174310729749,
        0.9548174308258628,
        0.9548174305864896,
        0.9548174303546014,
        0.9548174301299521,
        0.9548174299123054,
        0.9548174297014356,
        0.9548174294971206,
        0.9548174292991461,
        0.9548174291073064,
        0.9548174289213613,
        0.9548174287410532,
        0.954817428566188,
        0.9548174283965907,
        0.9548174282320948,
        0.9548174280725393,
        0.9548174279177689,
        0.9548174277676329,
        0.9548174276219862,
        0.9548174274806881,
        0.9548174273436033,
        0.9548174272105998,
        0.9548174270815514,
        0.9548174269563351,
        0.9548174268348321,
        0.9548174267169276,
        0.9548174266025107,
        0.9548174264914738,
        0.9548174263837133,
        0.9548174262791282,
        0.9548174261776216,
        0.954817426079099,
        0.9548174259834694,
        0.9548174258906447,
        0.9548174258005395,
        0.954817425713071,
        0.9548174256281595,
        0.9548174255457272,
        0.9548174254656994,
        0.9548174253880033,
        0.9548174253125686,
        0.9548174252393274,
        0.9548174251682137,
        0.9548174250991633,
        0.9548174250321149,
        0.954817424967008,
        0.954817424903785,
        0.9548174248423895,
        0.954817424782767,
        0.9548174247248647,
        0.9548174246686312,
        0.9548174246140171,
        0.9548174245609743,
        0.9548174245094561,
        0.9548174244594176,
        0.954817424410815,
        0.9548174243636061,
        0.9548174243177495,
        0.9548174242732056,
        0.9548174242299359,
        0.9548174241879025,
        0.9548174241470692,
        0.9548174241074009,
        0.9548174240688634,
        0.9548174240314238,
        0.9548174239950498,
        0.9548174239597104,
        0.9548174239253756,
        0.9548174238920161,
        0.9548174238596033,
        0.9548174238281341,
        0.9548174237975806,
        0.9548174237679146,
        0.9548174237391105,
        0.9548174237111432,
        0.954817423683988,
        0.9548174236576212,
        0.9548174236320197,
        0.9548174236071606,
        0.9548174235830222,
        0.9548174235595832,
        0.9548174235368232,
        0.9548174235147218,
        0.9548174234932598,
        0.9548174234724185,
        0.9548174234521793,
        0.954817423432525,
        0.954817423413438,
        0.9548174233949018,
        0.9548174233769001,
        0.9548174233594174,
        0.9548174233424385,
        0.9548174233259485,
        0.9548174233099334,
        0.9548174232943788,
        0.9548174232792719,
        0.9548174232645991,
        0.9548174232503478,
        0.954817423236506,
        0.9548174232230615,
        0.9548174232100028,
        0.9548174231973187,
        0.9548174231849983,
        0.9548174231730312,
        0.9548174231614066,
        0.9548174231501152,
        0.954817423139147,
        0.9548174231284926,
        0.954817423118143,
        0.9548174231080891,
        0.9548174230983228,
        0.9548174230888378,
        0.9548174230796268,
        0.9548174230706814,
        0.9548174230619945,
        0.954817423053558,
        0.9548174230453652,
        0.9548174230374085,
        0.9548174230296813,
        0.9548174230221768,
        0.9548174230148886,
        0.9548174230078104,
        0.954817423000936,
        0.9548174229942595,
        0.954817422987775,
        0.9548174229814773,
        0.9548174229753607,
        0.9548174229694198,
        0.95481742296365,
        0.954817422958046,
        0.9548174229526029,
        0.954817422947316,
        0.9548174229421811,
        0.9548174229371936,
        0.9548174229323492,
        0.9548174229276439,
        0.9548174229230734,
        0.9548174229186341,
        0.9548174229143221,
        0.9548174229101337,
        0.9548174229060653,
        0.9548174229021136,
        0.9548174228982749,
        0.9548174228945462,
        0.9548174228909243,
        0.954817422887406,
        0.9548174228839885,
        0.9548174228806688,
        0.9548174228774441,
        0.9548174228743116,
        0.9548174228712686,
        0.9548174228683127,
        0.9548174228654412,
        0.9548174228626519,
        0.9548174228599422,
        0.95481742285731,
        0.9548174228547529,
        0.9548174228522689,
        0.9548174228498558,
        0.9548174228475115,
        0.9548174228452341,
        0.9548174228430218,
        0.9548174228408726,
        0.9548174228387848,
        0.9548174228367563,
        0.9548174228347859,
        0.9548174228328716,
        0.9548174228310118,
        0.954817422829205,
        0.9548174228274499,
        0.9548174228257447,
        0.9548174228240879,
        0.9548174228224781,
        0.9548174228209138,
        0.9548174228193939,
        0.954817422817917,
        0.9548174228164821,
        0.9548174228150877,
        0.9548174228137328,
        0.9548174228124163,
        0.9548174228111371,
        0.954817422809894,
        0.9548174228086862,
        0.9548174228075126,
        0.954817422806372,
        0.9548174228052638,
        0.954817422804187,
        0.9548174228031407,
        0.954817422802124,
        0.954817422801136,
        0.9548174228001758,
        0.954817422799243,
        0.9548174227983364,
        0.9548174227974554,
        0.9548174227965994,
        0.9548174227957675,
        0.9548174227949592,
        0.9548174227941738,
        0.9548174227934105,
        0.9548174227926687,
        0.954817422791948,
        0.9548174227912475,
        0.9548174227905669,
        0.9548174227899056,
        0.9548174227892626,
        0.9548174227886381,
        0.9548174227880312,
        0.9548174227874413,
        0.9548174227868681,
        0.9548174227863111,
        0.9548174227857698,
        0.9548174227852438,
        0.9548174227847326,
        0.954817422784236,
        0.954817422783753
    ],
    "hals13_res": [
        0.9850934947742815,
        0.9828094412662319,
        0.9785651666351689,
        0.9743718837203019,
        0.9727190674168038,
        0.9717740342693706,
        0.9710944021222768,
        0.9706114865402172,
        0.9703189020416303,
        0.9701634586523148,
        0.970087924399621,
        0.9700470205417667,
        0.9700197761213456,
        0.9699994360905166,
        0.9699833756539642,
        0.9699704124166473,
        0.9699598170732154,
        0.9699512712007137,
        0.9699447584301264,
        0.9699398875276096,
        0.9699362025166003,
        0.9699333315050542,
        0.9699309859162867,
        0.9699289218080275,
        0.9699269832362165,
        0.9699250734892666,
        0.9699230963205208,
        0.9699209938129189,
        0.9699187242272326,
        0.9699162441458832,
        0.9699135004226691,
        0.9699104383281049,
        0.9699069948544456,
        0.9699030999715468,
        0.9698986758641469,
        0.9698936214716614,
        0.9698878269024216,
        0.9698811804620969,
        0.9698735544325194,
        0.9698648201410422,
        0.9698549867936753,
        0.9698439457889115,
        0.9698315573305365,
        0.9698176868142493,
        0.9698021559660654,
        0.9697848767056857,
        0.9697659397610691,
        0.9697457270479686,
        0.9697248766576337,
        0.9697045025010855,
        0.9696865657620262,
        0.9696720807132981,
        0.9696611200665349,
        0.9696529441877153,
        0.969646484370597,
        0.9696407952838496,
        0.969635139763425,
        0.9696289223989981,
        0.969621610628278,
        0.9696127747711675,
        0.9696020999775513,
        0.9695894397179342,
        0.9695749199494867,
        0.969559014515637,
        0.9695424972888143,
        0.9695263502563103,
        0.9695116071245616,
        0.9694988807297309,
        0.9694884538004075,
        0.9694803015394627,
        0.9694741985855445,
        0.9694697650443062,
        0.9694665856460756,
        0.9694643032849538,
        0.9694626437489515,
        0.9694614249936422,
        0.9694605303445031,
        0.9694598726241436,
        0.9694593894689357,
        0.9694590357516878,
        0.9694587776626178,
        0.9694585898715133,
        0.9694584535843983,
        0.9694583549051264,
        0.9694582836088212,
        0.9694582322014245,
        0.9694581952055236,
        0.9694581686501852,
        0.9694581496462001,
        0.9694581360627109,
        0.9694581263632345,
        0.9694581194436259,
        0.9694581145103317,
        0.9694581109955229,
        0.9694581084920579,
        0.969458106709592,
        0.9694581054408299,
        0.9694581045379421,
        0.9694581038955516,
        0.9694581034385822,
        0.9694581031135397,
        0.9694581028822011,
        0.9694581027174647,
        0.9694581026001539,
        0.9694581025166193,
        0.969458102457139,
        0.9694581024147882,
        0.9694581023846346,
        0.9694581023631659,
        0.9694581023478808,
        0.9694581023369985,
        0.9694581023292507,
        0.9694581023237347,
        0.9694581023198078,
        0.969458102317012,
        0.9694581023150215,
        0.9694581023136045,
        0.9694581023125955,
        0.9694581023118776,
        0.9694581023113662,
        0.9694581023110025,
        0.9694581023107435,
        0.9694581023105592,
        0.9694581023104278,
        0.9694581023103344,
        0.9694581023102679,
        0.9694581023102207,
        0.9694581023101869,
        0.9694581023101628,
        0.9694581023101457,
        0.9694581023101337,
        0.969458102310125,
        0.9694581023101189,
        0.9694581023101144,
        0.9694581023101113,
        0.9694581023101092,
        0.9694581023101075,
        0.9694581023101064,
        0.9694581023101055,
        0.969458102310105,
        0.9694581023101047,
        0.9694581023101042,
        0.9694581023101042,
        0.9694581023101039,
        0.9694581023101039,
        0.9694581023101039,
        0.9694581023101038,
        0.9694581023101038,
        0.9694581023101038,
        0.9694581023101037,
        0.9694581023101038,
        0.9694581023101037,
        0.9694581023101037,
        0.9694581023101037,
        0.9694581023101037,
        0.9694581023101037,
        0.9694581023101037,
        0.9694581023101037,
        0.9694581023101037,
        0.9694581023101037,
        0.9694581023101037,
        0.9694581023101037,
        0.9694581023101037,
        0.9694581023101037,
        0.9694581023101037,
        0.9694581023101037,
        0.9694581023101037,
        0.9694581023101037,
        0.9694581023101037,
        0.9694581023101037,
        0.9694581023101037,
        0.9694581023101037,
        0.9694581023101037,
        0.9694581023101037,
        0.9694581023101037,
        0.9694581023101037,
        0.9694581023101037,
        0.9694581023101037,
        0.9694581023101037,
        0.9694581023101037,
        0.9694581023101037,
        0.9694581023101037,
        0.9694581023101037,
        0.9694581023101037,
        0.9694581023101037,
        0.9694581023101037,
        0.9694581023101037,
        0.9694581023101037,
        0.9694581023101037,
        0.9694581023101037,
        0.9694581023101037,
        0.9694581023101037,
        0.9694581023101037,
        0.9694581023101037,
        0.9694581023101037,
        0.9694581023101037,
        0.9694581023101037,
        0.9694581023101037,
        0.9694581023101037,
        0.9694581023101037,
        0.9694581023101037,
        0.9694581023101037,
        0.9694581023101037,
        0.9694581023101037,
        0.9694581023101037,
        0.9694581023101037,
        0.9694581023101037,
        0.9694581023101037,
        0.9694581023101037,
        0.9694581023101037,
        0.9694581023101037,
        0.9694581023101037,
        0.9694581023101037,
        0.9694581023101037,
        0.9694581023101038,
        0.9694581023101037,
        0.9694581023101037,
        0.9694581023101037,
        0.9694581023101037,
        0.9694581023101037,
        0.9694581023101037,
        0.9694581023101037,
        0.9694581023101037,
        0.9694581023101037,
        0.9694581023101037,
        0.9694581023101037,
        0.9694581023101037,
        0.9694581023101037,
        0.9694581023101037,
        0.9694581023101037,
        0.9694581023101037,
        0.9694581023101037,
        0.9694581023101037,
        0.9694581023101037,
        0.9694581023101037,
        0.9694581023101037,
        0.9694581023101037,
        0.9694581023101037,
        0.9694581023101037,
        0.9694581023101037,
        0.9694581023101037,
        0.9694581023101037,
        0.9694581023101037,
        0.9694581023101037,
        0.9694581023101037,
        0.9694581023101037,
        0.9694581023101037,
        0.9694581023101037,
        0.9694581023101037,
        0.9694581023101037,
        0.9694581023101037,
        0.9694581023101037,
        0.9694581023101037,
        0.9694581023101037,
        0.9694581023101037,
        0.9694581023101037,
        0.9694581023101037,
        0.9694581023101037,
        0.9694581023101037,
        0.9694581023101037,
        0.9694581023101037,
        0.9694581023101037,
        0.9694581023101037,
        0.9694581023101037,
        0.9694581023101037,
        0.9694581023101037,
        0.9694581023101037,
        0.9694581023101037,
        0.9694581023101037,
        0.9694581023101037,
        0.9694581023101037,
        0.9694581023101037,
        0.9694581023101037,
        0.9694581023101037,
        0.9694581023101037,
        0.9694581023101037,
        0.9694581023101037,
        0.9694581023101037,
        0.9694581023101037,
        0.9694581023101037,
        0.9694581023101037,
        0.9694581023101037,
        0.9694581023101037,
        0.9694581023101037,
        0.9694581023101037,
        0.9694581023101037,
        0.9694581023101037,
        0.9694581023101037,
        0.9694581023101037,
        0.9694581023101037,
        0.9694581023101037,
        0.9694581023101037,
        0.9694581023101037,
        0.9694581023101037,
        0.9694581023101037,
        0.9694581023101037,
        0.9694581023101037,
        0.9694581023101037,
        0.9694581023101037,
        0.9694581023101037,
        0.9694581023101037,
        0.9694581023101037,
        0.9694581023101037,
        0.9694581023101037,
        0.9694581023101037,
        0.9694581023101037,
        0.9694581023101037,
        0.9694581023101037,
        0.9694581023101037,
        0.9694581023101037,
        0.9694581023101037,
        0.9694581023101037,
        0.9694581023101037,
        0.9694581023101037,
        0.9694581023101037,
        0.9694581023101037,
        0.9694581023101037,
        0.9694581023101037,
        0.9694581023101037,
        0.9694581023101037,
        0.9694581023101037,
        0.9694581023101037,
        0.9694581023101037,
        0.9694581023101037,
        0.9694581023101037,
        0.9694581023101037,
        0.9694581023101037,
        0.9694581023101037,
        0.9694581023101037,
        0.9694581023101037,
        0.9694581023101037,
        0.9694581023101037,
        0.9694581023101037,
        0.9694581023101037,
        0.9694581023101037,
        0.9694581023101037,
        0.9694581023101037,
        0.9694581023101037,
        0.9694581023101037,
        0.9694581023101037,
        0.9694581023101037,
        0.9694581023101037,
        0.9694581023101037,
        0.9694581023101037,
        0.9694581023101037,
        0.9694581023101037,
        0.9694581023101037,
        0.9694581023101037,
        0.9694581023101037,
        0.9694581023101037,
        0.9694581023101037,
        0.9694581023101037,
        0.9694581023101037,
        0.9694581023101037,
        0.9694581023101037,
        0.9694581023101037,
        0.9694581023101037,
        0.9694581023101037,
        0.9694581023101037,
        0.9694581023101037,
        0.9694581023101037,
        0.9694581023101037,
        0.9694581023101037,
        0.9694581023101037,
        0.9694581023101037,
        0.9694581023101037,
        0.9694581023101037,
        0.9694581023101037,
        0.9694581023101037,
        0.9694581023101037,
        0.9694581023101037,
        0.9694581023101037,
        0.9694581023101037,
        0.9694581023101037,
        0.9694581023101037,
        0.9694581023101037,
        0.9694581023101037,
        0.9694581023101037,
        0.9694581023101037,
        0.9694581023101037,
        0.9694581023101037,
        0.9694581023101037,
        0.9694581023101037,
        0.9694581023101037,
        0.9694581023101037,
        0.9694581023101037,
        0.9694581023101037,
        0.9694581023101037,
        0.9694581023101037,
        0.9694581023101037,
        0.9694581023101037,
        0.9694581023101037,
        0.9694581023101037,
        0.9694581023101037,
        0.9694581023101037,
        0.9694581023101037,
        0.9694581023101037,
        0.9694581023101037,
        0.9694581023101037,
        0.9694581023101037
    ]
}